@startuml

start

:We have a business problem;

if (Is there a solution for this problem?) then (yes)
  :Use it;
else (no)
  repeat
    :Analyze requirements;
    :Design a solution;
    :Implement the solution;
    :Show the solution to customer;
  repeat while (Customer not satisfied with the solution AND we have money for further improvements?) is (no)
endif

end

@enduml