# For more information visit
#
# https://plantuml.com/ie-diagram

@startuml

entity Invoice {
  * ID: <<generated>>
  * Number
}

entity InvoiceItem {
  * ID: <<generated>>
  * InvoiceId: <<FK>>
  * Name
}

InvoiceItem }|-- Invoice

@enduml